p8130_FinalProject
…
library(tidyverse)
library(janitor)
library(psych)
library(knitr)

ghc <- readxl::read_excel("GHProject_Dataset.xlsx") %>% 
  clean_names()

Each VisitID represents a unique visit. However, it is possible that a patient visited the hospital more than once. Summarize the number of visits per patient and if multiple visits per patient, select the first visit (by date) recorded.

ghc %>% 
  group_by(patientid) %>% 
  summarize(n = n())  ## summarize the number of visits per patient

## # A tibble: 3,612 x 2
##    patientid     n
##        <dbl> <int>
##  1       185     1
##  2       748     1
##  3      1572     1
##  4      1837     1
##  5      2513     1
##  6      4121     1
##  7      4956     1
##  8      5514     1
##  9      6445     1
## 10      6674     1
## # ... with 3,602 more rows
…
